dump.vcd
$date
	Fri Feb 14 16:50:11 2025
$end
$version
	Icarus Verilog
$end
$timescale
	1s
$end
$scope module tb_TOP $end
$var reg 1 ! CLK $end
$var reg 1 " nRST $end
$scope module uTOP $end
$var wire 1 ! CLK $end
$var wire 1 " nRST $end
$var wire 1 # Zero_E $end
$var wire 32 $ X9 [31:0] $end
$var wire 32 % X8 [31:0] $end
$var wire 32 & X7 [31:0] $end
$var wire 32 ' X6 [31:0] $end
$var wire 32 ( X5 [31:0] $end
$var wire 32 ) X4 [31:0] $end
$var wire 32 * X3 [31:0] $end
$var wire 32 + X2 [31:0] $end
$var wire 32 , X16 [31:0] $end
$var wire 32 - X15 [31:0] $end
$var wire 32 . X14 [31:0] $end
$var wire 32 / X13 [31:0] $end
$var wire 32 0 X12 [31:0] $end
$var wire 32 1 X11 [31:0] $end
$var wire 32 2 X10 [31:0] $end
$var wire 32 3 X1 [31:0] $end
$var wire 32 4 X0 [31:0] $end
$var wire 32 5 WriteData_M [31:0] $end
$var wire 32 6 WriteData_E [31:0] $end
$var wire 1 7 Stall_F $end
$var wire 1 8 Stall_D $end
$var wire 32 9 Src2_E [31:0] $end
$var wire 32 : Src1_E [31:0] $end
$var wire 5 ; Rs2_E [4:0] $end
$var wire 5 < Rs2_D [4:0] $end
$var wire 5 = Rs1_E [4:0] $end
$var wire 5 > Rs1_D [4:0] $end
$var wire 32 ? Result_W [31:0] $end
$var wire 2 @ ResultSrc_W [1:0] $end
$var wire 2 A ResultSrc_M [1:0] $end
$var wire 2 B ResultSrc_E [1:0] $end
$var wire 2 C ResultSrc_D [1:0] $end
$var wire 1 D RegWrite_W $end
$var wire 1 E RegWrite_M $end
$var wire 1 F RegWrite_E $end
$var wire 1 G RegWrite_D $end
$var wire 32 H ReadData_W [31:0] $end
$var wire 32 I ReadData_M [31:0] $end
$var wire 5 J Rd_W [4:0] $end
$var wire 5 K Rd_M [4:0] $end
$var wire 5 L Rd_E [4:0] $end
$var wire 5 M Rd_D [4:0] $end
$var wire 32 N RD2_E [31:0] $end
$var wire 32 O RD2_D [31:0] $end
$var wire 32 P RD1_E [31:0] $end
$var wire 32 Q RD1_D [31:0] $end
$var wire 32 R PC_ui_W [31:0] $end
$var wire 32 S PC_ui_M [31:0] $end
$var wire 32 T PC_next [31:0] $end
$var wire 32 U PC_Target_M [31:0] $end
$var wire 32 V PC_Target_E [31:0] $end
$var wire 1 W PC_Src_E $end
$var wire 32 X PC_Plus4_W [31:0] $end
$var wire 32 Y PC_Plus4_M [31:0] $end
$var wire 32 Z PC_Plus4_F [31:0] $end
$var wire 32 [ PC_Plus4_E [31:0] $end
$var wire 32 \ PC_Plus4_D [31:0] $end
$var wire 32 ] PC_F [31:0] $end
$var wire 32 ^ PC_E [31:0] $end
$var wire 32 _ PC_D [31:0] $end
$var wire 32 ` MuxJ_o [31:0] $end
$var wire 4 a MemWrite_M [3:0] $end
$var wire 4 b MemWrite_E [3:0] $end
$var wire 4 c MemWrite_D [3:0] $end
$var wire 4 d MemRead_M [3:0] $end
$var wire 4 e MemRead_E [3:0] $end
$var wire 4 f MemRead_D [3:0] $end
$var wire 8 g MEM_9 [7:0] $end
$var wire 8 h MEM_8 [7:0] $end
$var wire 8 i MEM_7 [7:0] $end
$var wire 8 j MEM_6 [7:0] $end
$var wire 8 k MEM_5 [7:0] $end
$var wire 8 l MEM_4 [7:0] $end
$var wire 8 m MEM_31 [7:0] $end
$var wire 8 n MEM_30 [7:0] $end
$var wire 8 o MEM_3 [7:0] $end
$var wire 8 p MEM_29 [7:0] $end
$var wire 8 q MEM_28 [7:0] $end
$var wire 8 r MEM_27 [7:0] $end
$var wire 8 s MEM_26 [7:0] $end
$var wire 8 t MEM_25 [7:0] $end
$var wire 8 u MEM_24 [7:0] $end
$var wire 8 v MEM_23 [7:0] $end
$var wire 8 w MEM_22 [7:0] $end
$var wire 8 x MEM_21 [7:0] $end
$var wire 8 y MEM_20 [7:0] $end
$var wire 8 z MEM_2 [7:0] $end
$var wire 8 { MEM_19 [7:0] $end
$var wire 8 | MEM_18 [7:0] $end
$var wire 8 } MEM_17 [7:0] $end
$var wire 8 ~ MEM_16 [7:0] $end
$var wire 8 !" MEM_15 [7:0] $end
$var wire 8 "" MEM_14 [7:0] $end
$var wire 8 #" MEM_13 [7:0] $end
$var wire 8 $" MEM_12 [7:0] $end
$var wire 8 %" MEM_11 [7:0] $end
$var wire 8 &" MEM_10 [7:0] $end
$var wire 8 '" MEM_1 [7:0] $end
$var wire 8 (" MEM_0 [7:0] $end
$var wire 1 )" Jump_E $end
$var wire 1 *" Jump_D $end
$var wire 1 +" Jsel_E $end
$var wire 1 ," Jalr_E $end
$var wire 1 -" Jalr_D $end
$var wire 32 ." Instr_F [31:0] $end
$var wire 32 /" Instr_D [31:0] $end
$var wire 1 0" Imm_ui_M $end
$var wire 1 1" Imm_ui_E $end
$var wire 1 2" Imm_ui_D $end
$var wire 3 3" ImmSrc_D [2:0] $end
$var wire 32 4" ImmExt_M [31:0] $end
$var wire 32 5" ImmExt_E [31:0] $end
$var wire 32 6" ImmExt_D [31:0] $end
$var wire 2 7" Forward2_E [1:0] $end
$var wire 2 8" Forward1_E [1:0] $end
$var wire 1 9" Flush_E $end
$var wire 1 :" Flush_D $end
$var wire 1 ;" Branch_E $end
$var wire 1 <" Branch_D $end
$var wire 1 =" AndOut_E $end
$var wire 2 >" ALU_op [1:0] $end
$var wire 1 ?" ALUSrc_E $end
$var wire 1 @" ALUSrc_D $end
$var wire 32 A" ALUResult_W [31:0] $end
$var wire 32 B" ALUResult_M [31:0] $end
$var wire 32 C" ALUResult_E [31:0] $end
$var wire 4 D" ALUCtrl_E [3:0] $end
$var wire 4 E" ALUCtrl_D [3:0] $end
$scope module uALU $end
$var wire 32 F" data2_i [31:0] $end
$var wire 32 G" data1_i [31:0] $end
$var wire 4 H" ALU_Ctrl [3:0] $end
$var parameter 4 I" ADD $end
$var parameter 4 J" AND $end
$var parameter 4 K" BEQ $end
$var parameter 4 L" BGE $end
$var parameter 4 M" BGEU $end
$var parameter 4 N" BLT $end
$var parameter 4 O" BLTU $end
$var parameter 4 P" BNE $end
$var parameter 4 Q" OR $end
$var parameter 4 R" SLL $end
$var parameter 4 S" SLT $end
$var parameter 4 T" SLTU $end
$var parameter 4 U" SRA $end
$var parameter 4 V" SRL $end
$var parameter 4 W" SUB $end
$var parameter 4 X" XOR $end
$var reg 1 # ALU_Br $end
$var reg 32 Y" result [31:0] $end
$upscope $end
$scope module uALUctrl $end
$var wire 3 Z" func3_i [2:0] $end
$var wire 1 [" func7_i $end
$var wire 1 \" opcode_i $end
$var wire 2 ]" ALUop_i [1:0] $end
$var reg 4 ^" ALUctrl_o [3:0] $end
$upscope $end
$scope module uAdd_E $end
$var wire 32 _" data_o [31:0] $end
$var wire 32 `" data2_i [31:0] $end
$var wire 32 a" data1_i [31:0] $end
$upscope $end
$scope module uAdd_PC $end
$var wire 32 b" data2_i [31:0] $end
$var wire 32 c" data_o [31:0] $end
$var wire 32 d" data1_i [31:0] $end
$upscope $end
$scope module uAnd_E $end
$var wire 1 # data1_i $end
$var wire 1 =" data_o $end
$var wire 1 ;" data2_i $end
$upscope $end
$scope module uCtrl_Unit $end
$var wire 3 e" func3_i [2:0] $end
$var wire 7 f" opcode_i [6:0] $end
$var reg 2 g" ALUop_o [1:0] $end
$var reg 1 @" ALUsrc_o $end
$var reg 1 <" Branch_o $end
$var reg 3 h" ImmSrc_o [2:0] $end
$var reg 1 2" ImmUI_o $end
$var reg 1 -" Jalr_o $end
$var reg 1 *" Jump_o $end
$var reg 4 i" MemRead_o [3:0] $end
$var reg 4 j" MemWrite_o [3:0] $end
$var reg 1 G RegWrite_o $end
$var reg 2 k" ResultSrc_o [1:0] $end
$upscope $end
$scope module uData_Mem $end
$var wire 1 ! CLK $end
$var wire 8 l" mem_data_0 [7:0] $end
$var wire 8 m" mem_data_1 [7:0] $end
$var wire 8 n" mem_data_10 [7:0] $end
$var wire 8 o" mem_data_11 [7:0] $end
$var wire 8 p" mem_data_12 [7:0] $end
$var wire 8 q" mem_data_13 [7:0] $end
$var wire 8 r" mem_data_14 [7:0] $end
$var wire 8 s" mem_data_15 [7:0] $end
$var wire 8 t" mem_data_16 [7:0] $end
$var wire 8 u" mem_data_17 [7:0] $end
$var wire 8 v" mem_data_18 [7:0] $end
$var wire 8 w" mem_data_19 [7:0] $end
$var wire 8 x" mem_data_2 [7:0] $end
$var wire 8 y" mem_data_20 [7:0] $end
$var wire 8 z" mem_data_21 [7:0] $end
$var wire 8 {" mem_data_22 [7:0] $end
$var wire 8 |" mem_data_23 [7:0] $end
$var wire 8 }" mem_data_24 [7:0] $end
$var wire 8 ~" mem_data_25 [7:0] $end
$var wire 8 !# mem_data_26 [7:0] $end
$var wire 8 "# mem_data_27 [7:0] $end
$var wire 8 ## mem_data_28 [7:0] $end
$var wire 8 $# mem_data_29 [7:0] $end
$var wire 8 %# mem_data_3 [7:0] $end
$var wire 8 &# mem_data_30 [7:0] $end
$var wire 8 '# mem_data_31 [7:0] $end
$var wire 8 (# mem_data_4 [7:0] $end
$var wire 8 )# mem_data_5 [7:0] $end
$var wire 8 *# mem_data_6 [7:0] $end
$var wire 8 +# mem_data_7 [7:0] $end
$var wire 8 ,# mem_data_8 [7:0] $end
$var wire 8 -# mem_data_9 [7:0] $end
$var wire 4 .# wEN [3:0] $end
$var wire 4 /# rEN [3:0] $end
$var wire 32 0# data_i [31:0] $end
$var wire 32 1# addr_i [31:0] $end
$var reg 32 2# data_o [31:0] $end
$upscope $end
$scope module uEX_MEM $end
$var wire 32 3# ALUResult_i [31:0] $end
$var wire 1 ! CLK $end
$var wire 1 " nRST $end
$var wire 32 4# pc_target_i [31:0] $end
$var wire 32 5# pc_incr_i [31:0] $end
$var wire 1 1" imm_ui_i $end
$var wire 32 6# imm_extd_i [31:0] $end
$var wire 32 7# WriteData_i [31:0] $end
$var wire 2 8# ResultSrc_i [1:0] $end
$var wire 1 F RegWrite_i $end
$var wire 5 9# RD_addr_i [4:0] $end
$var wire 4 :# MemWrite_i [3:0] $end
$var wire 4 ;# MemRead_i [3:0] $end
$var reg 32 <# ALUResult_o [31:0] $end
$var reg 4 =# MemRead_o [3:0] $end
$var reg 4 ># MemWrite_o [3:0] $end
$var reg 5 ?# RD_addr_o [4:0] $end
$var reg 1 E RegWrite_o $end
$var reg 2 @# ResultSrc_o [1:0] $end
$var reg 32 A# WriteData_o [31:0] $end
$var reg 32 B# imm_extd_o [31:0] $end
$var reg 1 0" imm_ui_o $end
$var reg 32 C# pc_incr_o [31:0] $end
$var reg 32 D# pc_target_o [31:0] $end
$upscope $end
$scope module uExtend $end
$var wire 25 E# Instr [31:7] $end
$var wire 3 F# src [2:0] $end
$var reg 32 G# imm_extd [31:0] $end
$upscope $end
$scope module uHazard_Unit $end
$var wire 1 :" FlushD_o $end
$var wire 1 9" FlushE_o $end
$var wire 5 H# RD_addrM_i [4:0] $end
$var wire 5 I# RS_addrD_i [4:0] $end
$var wire 5 J# RT_addrD_i [4:0] $end
$var wire 1 E RegWriteM_i $end
$var wire 1 8 StallD_o $end
$var wire 1 7 StallF_o $end
$var wire 2 K# ResultSrcE_i [1:0] $end
$var wire 1 D RegWriteW_i $end
$var wire 5 L# RT_addrE_i [4:0] $end
$var wire 5 M# RS_addrE_i [4:0] $end
$var wire 5 N# RD_addrW_i [4:0] $end
$var wire 5 O# RD_addrE_i [4:0] $end
$var wire 1 W PC_SrcE_i $end
$var reg 2 P# Forward1E_o [1:0] $end
$var reg 2 Q# Forward2E_o [1:0] $end
$var reg 1 R# lwStall $end
$upscope $end
$scope module uID_EX $end
$var wire 4 S# ALUCtrl_i [3:0] $end
$var wire 1 @" ALUSrc_i $end
$var wire 1 <" Branch_i $end
$var wire 1 ! CLK $end
$var wire 1 9" CLR $end
$var wire 1 -" Jalr_i $end
$var wire 1 *" Jump_i $end
$var wire 4 T# MemRead_i [3:0] $end
$var wire 4 U# MemWrite_i [3:0] $end
$var wire 5 V# RD_addr_i [4:0] $end
$var wire 5 W# RS_addr_i [4:0] $end
$var wire 5 X# RT_addr_i [4:0] $end
$var wire 1 G RegWrite_i $end
$var wire 2 Y# ResultSrc_i [1:0] $end
$var wire 32 Z# imm_extd_i [31:0] $end
$var wire 1 2" imm_ui_i $end
$var wire 1 " nRST $end
$var wire 32 [# pc_incr_i [31:0] $end
$var wire 32 \# pc_i [31:0] $end
$var wire 32 ]# RT_data_i [31:0] $end
$var wire 32 ^# RS_data_i [31:0] $end
$var reg 4 _# ALUCtrl_o [3:0] $end
$var reg 1 ?" ALUSrc_o $end
$var reg 1 ;" Branch_o $end
$var reg 1 ," Jalr_o $end
$var reg 1 )" Jump_o $end
$var reg 4 `# MemRead_o [3:0] $end
$var reg 4 a# MemWrite_o [3:0] $end
$var reg 5 b# RD_addr_o [4:0] $end
$var reg 5 c# RS_addr_o [4:0] $end
$var reg 32 d# RS_data_o [31:0] $end
$var reg 5 e# RT_addr_o [4:0] $end
$var reg 32 f# RT_data_o [31:0] $end
$var reg 1 F RegWrite_o $end
$var reg 2 g# ResultSrc_o [1:0] $end
$var reg 32 h# imm_extd_o [31:0] $end
$var reg 1 1" imm_ui_o $end
$var reg 32 i# pc_incr_o [31:0] $end
$var reg 32 j# pc_o [31:0] $end
$upscope $end
$scope module uIF_ID $end
$var wire 1 ! CLK $end
$var wire 1 :" CLR $end
$var wire 32 k# PC_Plus4F [31:0] $end
$var wire 1 8 nEN $end
$var wire 1 " nRST $end
$var wire 32 l# PC_F [31:0] $end
$var wire 32 m# Instr_F [31:0] $end
$var reg 32 n# Instr_D [31:0] $end
$var reg 32 o# PC_D [31:0] $end
$var reg 32 p# PC_Plus4D [31:0] $end
$upscope $end
$scope module uInstr_Mem $end
$var wire 32 q# Instr_F [31:0] $end
$var wire 32 r# PC_F [31:0] $end
$upscope $end
$scope module uMEM_WB $end
$var wire 32 s# ALUResult_i [31:0] $end
$var wire 1 ! CLK $end
$var wire 5 t# RD_addr_i [4:0] $end
$var wire 32 u# ReadData_i [31:0] $end
$var wire 1 E RegWrite_i $end
$var wire 2 v# ResultSrc_i [1:0] $end
$var wire 1 " nRST $end
$var wire 32 w# pc_incr_i [31:0] $end
$var wire 32 x# pc_ui_i [31:0] $end
$var reg 32 y# ALUResult_o [31:0] $end
$var reg 5 z# RD_addr_o [4:0] $end
$var reg 32 {# ReadData_o [31:0] $end
$var reg 1 D RegWrite_o $end
$var reg 2 |# ResultSrc_o [1:0] $end
$var reg 32 }# pc_incr_o [31:0] $end
$var reg 32 ~# pc_ui_o [31:0] $end
$upscope $end
$scope module uMux3_Fwd1 $end
$var wire 32 !$ data1_i [31:0] $end
$var wire 32 "$ data3_i [31:0] $end
$var wire 2 #$ select_i [1:0] $end
$var wire 32 $$ data2_i [31:0] $end
$var reg 32 %$ data_o [31:0] $end
$upscope $end
$scope module uMux3_Fwd2 $end
$var wire 32 &$ data1_i [31:0] $end
$var wire 32 '$ data3_i [31:0] $end
$var wire 2 ($ select_i [1:0] $end
$var wire 32 )$ data2_i [31:0] $end
$var reg 32 *$ data_o [31:0] $end
$upscope $end
$scope module uMux_E $end
$var wire 32 +$ data1_i [31:0] $end
$var wire 32 ,$ data2_i [31:0] $end
$var wire 1 ?" select_i $end
$var wire 32 -$ data_o [31:0] $end
$upscope $end
$scope module uMux_IMM $end
$var wire 32 .$ data1_i [31:0] $end
$var wire 32 /$ data2_i [31:0] $end
$var wire 1 0" select_i $end
$var wire 32 0$ data_o [31:0] $end
$upscope $end
$scope module uMux_Jump $end
$var wire 32 1$ data1_i [31:0] $end
$var wire 32 2$ data2_i [31:0] $end
$var wire 1 ," select_i $end
$var wire 32 3$ data_o [31:0] $end
$upscope $end
$scope module uMux_PC $end
$var wire 32 4$ data1_i [31:0] $end
$var wire 32 5$ data2_i [31:0] $end
$var wire 1 W select_i $end
$var wire 32 6$ data_o [31:0] $end
$upscope $end
$scope module uMux_WB $end
$var wire 32 7$ data1_i [31:0] $end
$var wire 32 8$ data2_i [31:0] $end
$var wire 32 9$ data3_i [31:0] $end
$var wire 32 :$ data4_i [31:0] $end
$var wire 2 ;$ select_i [1:0] $end
$var reg 32 <$ data_o [31:0] $end
$upscope $end
$scope module uOr_E $end
$var wire 1 =" data1_i $end
$var wire 1 W data_o $end
$var wire 1 +" data2_i $end
$upscope $end
$scope module uOr_Jump $end
$var wire 1 )" data1_i $end
$var wire 1 ," data2_i $end
$var wire 1 +" data_o $end
$upscope $end
$scope module uPC $end
$var wire 1 ! CLK $end
$var wire 32 =$ PCnext [31:0] $end
$var wire 1 7 nEN $end
$var wire 1 " nRST $end
$var parameter 32 >$ WIDTH $end
$var reg 32 ?$ PC [31:0] $end
$upscope $end
$scope module uRegFile $end
$var wire 1 ! CLK $end
$var wire 5 @$ RDaddr_i [4:0] $end
$var wire 5 A$ RSaddr_i [4:0] $end
$var wire 32 B$ RSdata_o [31:0] $end
$var wire 5 C$ RTaddr_i [4:0] $end
$var wire 32 D$ RTdata_o [31:0] $end
$var wire 1 " nRST $end
$var wire 32 E$ wData_i [31:0] $end
$var wire 1 D wEN $end
$var wire 32 F$ x0_o [31:0] $end
$var wire 32 G$ x10_o [31:0] $end
$var wire 32 H$ x11_o [31:0] $end
$var wire 32 I$ x12_o [31:0] $end
$var wire 32 J$ x13_o [31:0] $end
$var wire 32 K$ x14_o [31:0] $end
$var wire 32 L$ x15_o [31:0] $end
$var wire 32 M$ x16_o [31:0] $end
$var wire 32 N$ x1_o [31:0] $end
$var wire 32 O$ x2_o [31:0] $end
$var wire 32 P$ x3_o [31:0] $end
$var wire 32 Q$ x4_o [31:0] $end
$var wire 32 R$ x5_o [31:0] $end
$var wire 32 S$ x6_o [31:0] $end
$var wire 32 T$ x7_o [31:0] $end
$var wire 32 U$ x8_o [31:0] $end
$var wire 32 V$ x9_o [31:0] $end
$var integer 32 W$ i [31:0] $end
$upscope $end
$upscope $end
$upscope $end
$enddefinitions $end
$comment Show the parameter values. $end
$dumpall
b100000 >$
b10 X"
b1 W"
b110 V"
b111 U"
b1001 T"
b1000 S"
b101 R"
b11 Q"
b1011 P"
b1110 O"
b1100 N"
b1111 M"
b1101 L"
b1010 K"
b100 J"
b0 I"
$end
#0
$dumpvars
bx W$
bx V$
bx U$
bx T$
bx S$
bx R$
bx Q$
bx P$
bx O$
bx N$
bx M$
bx L$
bx K$
bx J$
bx I$
bx H$
bx G$
bx F$
bx E$
bx D$
bx C$
bx B$
bx A$
bx @$
bx ?$
bx =$
bx <$
bx ;$
bx :$
bx 9$
bx 8$
bx 7$
bx 6$
bx 5$
bx 4$
bx 3$
bx 2$
bx 1$
bx 0$
bx /$
bx .$
bx -$
bx ,$
bx +$
bx *$
bx )$
bx ($
bx '$
bx &$
bx %$
bx $$
bx #$
bx "$
bx !$
bx ~#
bx }#
bx |#
bx {#
bx z#
bx y#
bx x#
bx w#
bx v#
bx u#
bx t#
bx s#
bx r#
bx q#
bx p#
bx o#
bx n#
bx m#
bx l#
bx k#
bx j#
bx i#
bx h#
bx g#
bx f#
bx e#
bx d#
bx c#
bx b#
bx a#
bx `#
bx _#
bx ^#
bx ]#
bx \#
bx [#
bx Z#
b0 Y#
bx X#
bx W#
bx V#
b0 U#
b0 T#
b0 S#
xR#
bx Q#
bx P#
bx O#
bx N#
bx M#
bx L#
bx K#
bx J#
bx I#
bx H#
bx G#
b0 F#
bx E#
bx D#
bx C#
bx B#
bx A#
bx @#
bx ?#
bx >#
bx =#
bx <#
bx ;#
bx :#
bx 9#
bx 8#
bx 7#
bx 6#
bx 5#
bx 4#
bx 3#
bx 2#
bx 1#
bx 0#
bx /#
bx .#
b0 -#
b0 ,#
b0 +#
b0 *#
b0 )#
b0 (#
b0 '#
b0 &#
b0 %#
b0 $#
b0 ##
b0 "#
b0 !#
b0 ~"
b0 }"
b0 |"
b0 {"
b0 z"
b0 y"
b0 x"
b0 w"
b0 v"
b0 u"
b0 t"
b0 s"
b0 r"
b0 q"
b0 p"
b0 o"
b0 n"
b0 m"
b0 l"
b0 k"
b0 j"
b0 i"
b0 h"
b0 g"
bx f"
bx e"
bx d"
bx c"
b100 b"
bx a"
bx `"
bx _"
b0 ^"
b0 ]"
x\"
x["
bx Z"
bx Y"
bx H"
bx G"
bx F"
b0 E"
bx D"
bx C"
bx B"
bx A"
0@"
x?"
b0 >"
x="
0<"
x;"
x:"
x9"
bx 8"
bx 7"
bx 6"
bx 5"
bx 4"
b0 3"
02"
x1"
x0"
bx /"
bx ."
0-"
x,"
x+"
0*"
x)"
b0 ("
b0 '"
b0 &"
b0 %"
b0 $"
b0 #"
b0 ""
b0 !"
b0 ~
b0 }
b0 |
b0 {
b0 z
b0 y
b0 x
b0 w
b0 v
b0 u
b0 t
b0 s
b0 r
b0 q
b0 p
b0 o
b0 n
b0 m
b0 l
b0 k
b0 j
b0 i
b0 h
b0 g
b0 f
bx e
bx d
b0 c
bx b
bx a
bx `
bx _
bx ^
bx ]
bx \
bx [
bx Z
bx Y
bx X
xW
bx V
bx U
bx T
bx S
bx R
bx Q
bx P
bx O
bx N
bx M
bx L
bx K
bx J
bx I
bx H
0G
xF
xE
xD
b0 C
bx B
bx A
bx @
bx ?
bx >
bx =
bx <
bx ;
bx :
bx 9
x8
x7
bx 6
bx 5
bx 4
bx 3
bx 2
bx 1
bx 0
bx /
bx .
bx -
bx ,
bx +
bx *
bx )
bx (
bx '
bx &
bx %
bx $
x#
x"
x!
$end
#10
0!
1"
#20
09"
b0 C"
b0 Y"
b0 3#
0:"
0W
b100000000000010010011 ."
b100000000000010010011 m#
b100000000000010010011 q#
b100 T
b100 6$
b100 =$
b0 e"
b0 f"
0\"
0["
b0 Z"
b0 E#
b0 C$
b0 A$
b0 M
b0 V#
b0 <
b0 J#
b0 X#
b0 >
b0 I#
b0 W#
b0 9
b0 F"
b0 -$
0#
0="
b0 V
b0 _"
b0 4#
b0 5$
b0 `
b0 a"
b0 3$
0+"
08
07
0R#
b0 S
b0 x#
b0 0$
b0 :
b0 G"
b0 %$
b0 6
b0 7#
b0 *$
b0 +$
b0 I
b0 2#
b0 u#
b0 ?
b0 $$
b0 )$
b0 <$
b0 E$
b0 7"
b0 Q#
b0 ($
b0 8"
b0 P#
b0 #$
b100 Z
b100 c"
b100 k#
b100 4$
b0 ]
b0 d"
b0 l#
b0 r#
b0 ?$
b0 /"
b0 n#
b0 \
b0 [#
b0 p#
b0 _
b0 \#
b0 o#
b0 [
b0 5#
b0 i#
b0 5"
b0 `"
b0 6#
b0 h#
b0 ,$
b0 L
b0 9#
b0 O#
b0 b#
b0 ;
b0 L#
b0 e#
b0 =
b0 M#
b0 c#
b0 ^
b0 j#
b0 1$
b0 N
b0 f#
b0 &$
b0 P
b0 d#
b0 !$
b0 2$
01"
0?"
b0 D"
b0 H"
b0 _#
0;"
0,"
0)"
b0 b
b0 :#
b0 a#
b0 e
b0 ;#
b0 `#
b0 B
b0 8#
b0 K#
b0 g#
0F
b0 4"
b0 B#
b0 /$
00"
b0 U
b0 D#
b0 .$
b0 Y
b0 C#
b0 w#
b0 K
b0 ?#
b0 H#
b0 t#
b0 5
b0 0#
b0 A#
b0 B"
b0 1#
b0 <#
b0 s#
b0 "$
b0 '$
b0 a
b0 .#
b0 >#
b0 d
b0 /#
b0 =#
b0 A
b0 @#
b0 v#
0E
b0 R
b0 ~#
b0 :$
b0 X
b0 }#
b0 9$
b0 J
b0 N#
b0 z#
b0 @$
b0 H
b0 {#
b0 8$
b0 A"
b0 y#
b0 7$
b0 @
b0 |#
b0 ;$
0D
0"
1!
#30
b0 ,
b0 M$
b0 -
b0 L$
b0 .
b0 K$
b0 /
b0 J$
b0 0
b0 I$
b0 1
b0 H$
b0 2
b0 G$
b0 $
b0 V$
b0 %
b0 U$
b0 &
b0 T$
b0 '
b0 S$
b0 (
b0 R$
b0 )
b0 Q$
b0 *
b0 P$
b0 +
b0 O$
b0 3
b0 N$
b0 Q
b0 ^#
b0 B$
b0 O
b0 ]#
b0 D$
b0 4
b0 F$
b100000 W$
0!
#40
1!
#45
1"
#50
0!
#60
b1 6"
b1 G#
b1 Z#
b1 3"
b1 h"
b1 F#
x2"
b10 >"
b10 ]"
b10 g"
1@"
1G
b1000000000000100010011 ."
b1000000000000100010011 m#
b1000000000000100010011 q#
b1000 T
b1000 6$
b1000 =$
b10011 f"
b10000000000001 E#
b1 C$
b1 M
b1 V#
b1 <
b1 J#
b1 X#
b1000 Z
b1000 c"
b1000 k#
b1000 4$
b100 ]
b100 d"
b100 l#
b100 r#
b100 ?$
b100000000000010010011 /"
b100000000000010010011 n#
b100 \
b100 [#
b100 p#
bx V
bx _"
bx 4#
bx 5$
bx 5"
bx `"
bx 6#
bx h#
bx ,$
1!
#70
0!
#80
b1 C"
b1 Y"
b1 3#
b10 6"
b10 G#
b10 Z#
bx S
bx x#
bx 0$
b1 9
b1 F"
b1 -$
b100000000000010 E#
b10 C$
b10 M
b10 V#
b10 <
b10 J#
b10 X#
b1100000000000110010011 ."
b1100000000000110010011 m#
b1100000000000110010011 q#
b1100 T
b1100 6$
b1100 =$
bx 4"
bx B#
bx /$
bx U
bx D#
bx .$
b100 [
b100 5#
b100 i#
b1 V
b1 _"
b1 4#
b1 5$
b1 5"
b1 `"
b1 6#
b1 h#
b1 ,$
b1 L
b1 9#
b1 O#
b1 b#
b1 ;
b1 L#
b1 e#
x1"
1?"
1F
b1000000000000100010011 /"
b1000000000000100010011 n#
b1000 \
b1000 [#
b1000 p#
b100 _
b100 \#
b100 o#
b1100 Z
b1100 c"
b1100 k#
b1100 4$
b1000 ]
b1000 d"
b1000 l#
b1000 r#
b1000 ?$
1!
#90
0!
#100
b11 6"
b11 G#
b11 Z#
b10 C"
b10 Y"
b10 3#
b1111111110100000000001000010011 ."
b1111111110100000000001000010011 m#
b1111111110100000000001000010011 q#
b10000 T
b10000 6$
b10000 =$
b110000000000011 E#
b11 C$
b11 M
b11 V#
b11 <
b11 J#
b11 X#
b10 9
b10 F"
b10 -$
b100 `
b100 a"
b100 3$
b1 S
b1 x#
b1 0$
b10000 Z
b10000 c"
b10000 k#
b10000 4$
b1100 ]
b1100 d"
b1100 l#
b1100 r#
b1100 ?$
b1100000000000110010011 /"
b1100000000000110010011 n#
b1100 \
b1100 [#
b1100 p#
b1000 _
b1000 \#
b1000 o#
b1000 [
b1000 5#
b1000 i#
b110 V
b110 _"
b110 4#
b110 5$
b10 5"
b10 `"
b10 6#
b10 h#
b10 ,$
b10 L
b10 9#
b10 O#
b10 b#
b10 ;
b10 L#
b10 e#
b100 ^
b100 j#
b100 1$
b1 4"
b1 B#
b1 /$
x0"
b1 U
b1 D#
b1 .$
b100 Y
b100 C#
b100 w#
b1 K
b1 ?#
b1 H#
b1 t#
b1 B"
b1 1#
b1 <#
b1 s#
b1 "$
b1 '$
1E
bx R
bx ~#
bx :$
1!
#110
0!
#120
b11 C"
b11 Y"
b11 3#
b11111111101 6"
b11111111101 G#
b11111111101 Z#
b1 ?
b1 $$
b1 )$
b1 <$
b1 E$
b0x10 S
b0x10 x#
b0x10 0$
b11 9
b11 F"
b11 -$
b1000 `
b1000 a"
b1000 3$
1["
b111111111010000000000100 E#
b11101 C$
b100 M
b100 V#
b11101 <
b11101 J#
b11101 X#
b1111111111000000000001010010011 ."
b1111111111000000000001010010011 m#
b1111111111000000000001010010011 q#
b10100 T
b10100 6$
b10100 =$
b1 R
b1 ~#
b1 :$
b100 X
b100 }#
b100 9$
b1 J
b1 N#
b1 z#
b1 @$
b1 A"
b1 y#
b1 7$
1D
b10 4"
b10 B#
b10 /$
b110 U
b110 D#
b110 .$
b1000 Y
b1000 C#
b1000 w#
b10 K
b10 ?#
b10 H#
b10 t#
b10 B"
b10 1#
b10 <#
b10 s#
b10 "$
b10 '$
b1100 [
b1100 5#
b1100 i#
b1011 V
b1011 _"
b1011 4#
b1011 5$
b11 5"
b11 `"
b11 6#
b11 h#
b11 ,$
b11 L
b11 9#
b11 O#
b11 b#
b11 ;
b11 L#
b11 e#
b1000 ^
b1000 j#
b1000 1$
b1111111110100000000001000010011 /"
b1111111110100000000001000010011 n#
b10000 \
b10000 [#
b10000 p#
b1100 _
b1100 \#
b1100 o#
b10100 Z
b10100 c"
b10100 k#
b10100 4$
b10000 ]
b10000 d"
b10000 l#
b10000 r#
b10000 ?$
1!
#130
b1 3
b1 N$
0!
